timeStamp,elapsed,label,responseCode,responseMessage,threadName,dataType,success,failureMessage,bytes,sentBytes,grpThreads,allThreads,URL,Latency,IdleTime,Connect
1644762881719,2009,HTTP Request,200,OK,Thread Group 1-2,text,true,,8767,126,8,8,https://prabals.herokuapp.com/,2007,0,914
1644762881577,2155,HTTP Request,200,OK,Thread Group 1-1,text,true,,8767,126,8,8,https://prabals.herokuapp.com/,2149,0,1055
1644762881812,2072,HTTP Request,200,OK,Thread Group 1-3,text,true,,8767,126,8,8,https://prabals.herokuapp.com/,2072,0,914
1644762881937,1954,HTTP Request,200,OK,Thread Group 1-4,text,true,,8767,126,8,8,https://prabals.herokuapp.com/,1954,0,935
1644762882062,1990,HTTP Request,200,OK,Thread Group 1-5,text,true,,8767,126,8,8,https://prabals.herokuapp.com/,1990,0,892
1644762882312,1750,HTTP Request,200,OK,Thread Group 1-7,text,true,,8767,126,8,8,https://prabals.herokuapp.com/,1750,0,926
1644762882187,1998,HTTP Request,200,OK,Thread Group 1-6,text,true,,8767,126,8,8,https://prabals.herokuapp.com/,1995,0,1058
1644762882439,1793,HTTP Request,200,OK,Thread Group 1-8,text,true,,8767,126,8,8,https://prabals.herokuapp.com/,1789,0,856
1644762883892,490,HTTP Request,200,OK,Thread Group 1-4,text,true,,8767,126,8,8,https://prabals.herokuapp.com/,486,0,0
1644762884053,494,HTTP Request,200,OK,Thread Group 1-5,text,true,,8767,126,8,8,https://prabals.herokuapp.com/,489,0,0
1644762884062,521,HTTP Request,200,OK,Thread Group 1-7,text,true,,8767,126,8,8,https://prabals.herokuapp.com/,520,0,0
1644762884232,603,HTTP Request,200,OK,Thread Group 1-8,text,true,,8767,126,8,8,https://prabals.herokuapp.com/,603,0,0
1644762884185,653,HTTP Request,200,OK,Thread Group 1-6,text,true,,8767,126,8,8,https://prabals.herokuapp.com/,652,0,0
1644762883727,1260,HTTP Request,200,OK,Thread Group 1-2,text,true,,8767,126,8,8,https://prabals.herokuapp.com/,1259,0,827
1644762883731,1343,HTTP Request,200,OK,Thread Group 1-1,text,true,,8767,126,8,8,https://prabals.herokuapp.com/,1341,0,836
1644762883884,1482,HTTP Request,200,OK,Thread Group 1-3,text,true,,8767,126,8,8,https://prabals.herokuapp.com/,1482,0,954
1644762884988,493,HTTP Request,200,OK,Thread Group 1-2,text,true,,8767,126,8,8,https://prabals.herokuapp.com/,492,0,0
1644762885075,572,HTTP Request,200,OK,Thread Group 1-1,text,true,,8767,126,8,8,https://prabals.herokuapp.com/,570,0,0
1644762884382,1334,HTTP Request,200,OK,Thread Group 1-4,text,true,,8767,126,8,8,https://prabals.herokuapp.com/,1334,0,843
1644762885366,482,HTTP Request,200,OK,Thread Group 1-3,text,true,,8767,126,8,8,https://prabals.herokuapp.com/,482,0,0
1644762884548,1527,HTTP Request,200,OK,Thread Group 1-5,text,true,,8767,126,8,8,https://prabals.herokuapp.com/,1526,0,880
1644762884583,1494,HTTP Request,200,OK,Thread Group 1-7,text,true,,8767,126,8,8,https://prabals.herokuapp.com/,1491,0,830
1644762885481,631,HTTP Request,200,OK,Thread Group 1-2,text,true,,8767,126,8,8,https://prabals.herokuapp.com/,628,0,0
1644762885648,568,HTTP Request,200,OK,Thread Group 1-1,text,true,,8767,126,8,8,https://prabals.herokuapp.com/,566,0,0
1644762885716,560,HTTP Request,200,OK,Thread Group 1-4,text,true,,8767,126,8,8,https://prabals.herokuapp.com/,558,0,0
1644762884838,1606,HTTP Request,200,OK,Thread Group 1-6,text,true,,8767,126,8,8,https://prabals.herokuapp.com/,1597,0,868
1644762884835,1609,HTTP Request,200,OK,Thread Group 1-8,text,true,,8767,126,8,8,https://prabals.herokuapp.com/,1609,0,870
1644762885849,767,HTTP Request,200,OK,Thread Group 1-3,text,true,,8767,126,8,8,https://prabals.herokuapp.com/,767,0,0
1644762886077,596,HTTP Request,200,OK,Thread Group 1-7,text,true,,8767,126,8,8,https://prabals.herokuapp.com/,595,0,0
1644762886076,722,HTTP Request,200,OK,Thread Group 1-5,text,true,,8767,126,8,8,https://prabals.herokuapp.com/,722,0,0
1644762886277,554,HTTP Request,200,OK,Thread Group 1-4,text,true,,8767,126,8,8,https://prabals.herokuapp.com/,549,0,0
1644762886445,511,HTTP Request,200,OK,Thread Group 1-6,text,true,,8767,126,8,8,https://prabals.herokuapp.com/,508,0,0
1644762886445,557,HTTP Request,200,OK,Thread Group 1-8,text,true,,8767,126,8,8,https://prabals.herokuapp.com/,540,0,0
1644762886112,1334,HTTP Request,200,OK,Thread Group 1-2,text,true,,8767,126,8,8,https://prabals.herokuapp.com/,1332,0,855
1644762886217,1390,HTTP Request,200,OK,Thread Group 1-1,text,true,,8767,126,8,8,https://prabals.herokuapp.com/,1377,0,891
1644762887446,509,HTTP Request,200,OK,Thread Group 1-2,text,true,,8767,126,8,8,https://prabals.herokuapp.com/,507,0,0
1644762886617,1341,HTTP Request,200,OK,Thread Group 1-3,text,true,,8767,126,8,8,https://prabals.herokuapp.com/,1340,0,856
1644762886673,1381,HTTP Request,200,OK,Thread Group 1-7,text,true,,8767,126,8,8,https://prabals.herokuapp.com/,1380,0,853
1644762887607,528,HTTP Request,200,OK,Thread Group 1-1,text,true,,8767,126,8,8,https://prabals.herokuapp.com/,527,0,0
1644762886831,1377,HTTP Request,200,OK,Thread Group 1-4,text,true,,8767,126,8,8,https://prabals.herokuapp.com/,1375,0,820
1644762886799,1528,HTTP Request,200,OK,Thread Group 1-5,text,true,,7299,126,8,8,https://prabals.herokuapp.com/,1525,0,859
1644762886956,1437,HTTP Request,200,OK,Thread Group 1-6,text,true,,7299,126,8,8,https://prabals.herokuapp.com/,1437,0,860
1644762887002,1562,HTTP Request,200,OK,Thread Group 1-8,text,true,,7299,126,8,8,https://prabals.herokuapp.com/,1562,0,954
1644762887956,728,HTTP Request,200,OK,Thread Group 1-2,text,true,,7299,126,8,8,https://prabals.herokuapp.com/,727,0,0
1644762887958,804,HTTP Request,200,OK,Thread Group 1-3,text,true,,7299,126,8,8,https://prabals.herokuapp.com/,801,0,0
1644762888055,833,HTTP Request,200,OK,Thread Group 1-7,text,true,,7299,126,8,8,https://prabals.herokuapp.com/,832,0,0
1644762888136,821,HTTP Request,200,OK,Thread Group 1-1,text,true,,7299,126,8,8,https://prabals.herokuapp.com/,820,0,0
1644762888208,837,HTTP Request,200,OK,Thread Group 1-4,text,true,,7299,126,8,8,https://prabals.herokuapp.com/,837,0,0
1644762888327,788,HTTP Request,200,OK,Thread Group 1-5,text,true,,7299,126,8,8,https://prabals.herokuapp.com/,787,0,0
1644762888394,808,HTTP Request,200,OK,Thread Group 1-6,text,true,,7299,126,8,8,https://prabals.herokuapp.com/,808,0,0
1644762888565,722,HTTP Request,200,OK,Thread Group 1-8,text,true,,7299,126,8,8,https://prabals.herokuapp.com/,718,0,0
1644762888685,1262,HTTP Request,200,OK,Thread Group 1-2,text,true,,7299,126,8,8,https://prabals.herokuapp.com/,1258,0,827
1644762888762,1293,HTTP Request,200,OK,Thread Group 1-3,text,true,,7299,126,8,8,https://prabals.herokuapp.com/,1293,0,833
1644762888888,1285,HTTP Request,200,OK,Thread Group 1-7,text,true,,7299,126,8,8,https://prabals.herokuapp.com/,1283,0,848
1644762888957,1282,HTTP Request,200,OK,Thread Group 1-1,text,true,,7299,126,8,8,https://prabals.herokuapp.com/,1280,0,851
1644762889046,1319,HTTP Request,200,OK,Thread Group 1-4,text,true,,7299,126,8,8,https://prabals.herokuapp.com/,1319,0,838
1644762889948,536,HTTP Request,200,OK,Thread Group 1-2,text,true,,7299,126,8,8,https://prabals.herokuapp.com/,504,0,0
1644762889116,1512,HTTP Request,200,OK,Thread Group 1-5,text,true,,7299,126,8,8,https://prabals.herokuapp.com/,1511,0,867
1644762890056,640,HTTP Request,200,OK,Thread Group 1-3,text,true,,7299,126,8,8,https://prabals.herokuapp.com/,629,0,0
1644762889202,1620,HTTP Request,200,OK,Thread Group 1-6,text,true,,7299,126,8,8,https://prabals.herokuapp.com/,1618,0,831
1644762889288,1575,HTTP Request,200,OK,Thread Group 1-8,text,true,,7299,126,8,8,https://prabals.herokuapp.com/,1575,0,796
1644762890174,792,HTTP Request,200,OK,Thread Group 1-7,text,true,,7299,126,8,8,https://prabals.herokuapp.com/,790,0,0
1644762890240,947,HTTP Request,200,OK,Thread Group 1-1,text,true,,7299,126,8,8,https://prabals.herokuapp.com/,806,0,0
1644762890365,824,HTTP Request,200,OK,Thread Group 1-4,text,true,,7299,126,8,8,https://prabals.herokuapp.com/,822,0,0
1644762890485,743,HTTP Request,200,OK,Thread Group 1-2,text,true,,7299,126,8,8,https://prabals.herokuapp.com/,740,0,0
1644762890628,672,HTTP Request,200,OK,Thread Group 1-5,text,true,,7299,126,8,8,https://prabals.herokuapp.com/,669,0,0
1644762890697,729,HTTP Request,200,OK,Thread Group 1-3,text,true,,7299,126,8,8,https://prabals.herokuapp.com/,729,0,0
1644762890823,640,HTTP Request,200,OK,Thread Group 1-6,text,true,,7299,126,8,8,https://prabals.herokuapp.com/,640,0,0
1644762890864,775,HTTP Request,200,OK,Thread Group 1-8,text,true,,7299,126,8,8,https://prabals.herokuapp.com/,755,0,0
1644762890966,1278,HTTP Request,200,OK,Thread Group 1-7,text,true,,7299,126,8,8,https://prabals.herokuapp.com/,1277,0,816
1644762891189,1304,HTTP Request,200,OK,Thread Group 1-4,text,true,,7299,126,8,8,https://prabals.herokuapp.com/,1304,0,830
1644762891187,1325,HTTP Request,200,OK,Thread Group 1-1,text,true,,7299,126,8,8,https://prabals.herokuapp.com/,1325,0,848
1644762891228,1461,HTTP Request,200,OK,Thread Group 1-2,text,true,,7299,126,8,8,https://prabals.herokuapp.com/,1459,0,848
1644762891301,1390,HTTP Request,200,OK,Thread Group 1-5,text,true,,7299,126,8,8,https://prabals.herokuapp.com/,1389,0,856
1644762891427,1399,HTTP Request,200,OK,Thread Group 1-3,text,true,,7299,126,8,8,https://prabals.herokuapp.com/,1397,0,821
1644762892245,627,HTTP Request,200,OK,Thread Group 1-7,text,true,,7299,126,8,8,https://prabals.herokuapp.com/,626,0,0
1644762891463,1705,HTTP Request,200,OK,Thread Group 1-6,text,true,,7299,126,8,8,https://prabals.herokuapp.com/,1704,0,831
1644762891639,1530,HTTP Request,200,OK,Thread Group 1-8,text,true,,7299,126,8,8,https://prabals.herokuapp.com/,1528,0,813
1644762892494,677,HTTP Request,200,OK,Thread Group 1-4,text,true,,7299,126,8,8,https://prabals.herokuapp.com/,677,0,0
1644762892513,661,HTTP Request,200,OK,Thread Group 1-1,text,true,,7299,126,8,8,https://prabals.herokuapp.com/,661,0,0
1644762892692,640,HTTP Request,200,OK,Thread Group 1-5,text,true,,7299,126,8,8,https://prabals.herokuapp.com/,639,0,0
1644762892689,666,HTTP Request,200,OK,Thread Group 1-2,text,true,,7299,126,8,8,https://prabals.herokuapp.com/,663,0,0
1644762892826,726,HTTP Request,200,OK,Thread Group 1-3,text,true,,7299,126,8,8,https://prabals.herokuapp.com/,726,0,0
1644762892872,701,HTTP Request,200,OK,Thread Group 1-7,text,true,,7299,126,8,8,https://prabals.herokuapp.com/,700,0,0
1644762893168,586,HTTP Request,200,OK,Thread Group 1-6,text,true,,7299,126,8,8,https://prabals.herokuapp.com/,586,0,0
1644762893170,598,HTTP Request,200,OK,Thread Group 1-8,text,true,,7299,126,8,8,https://prabals.herokuapp.com/,598,0,0
1644762893171,747,HTTP Request,200,OK,Thread Group 1-4,text,true,,7299,126,8,8,https://prabals.herokuapp.com/,731,0,0
1644762893174,759,HTTP Request,200,OK,Thread Group 1-1,text,true,,7299,126,8,8,https://prabals.herokuapp.com/,758,0,0
1644762893333,1311,HTTP Request,200,OK,Thread Group 1-5,text,true,,7299,126,8,8,https://prabals.herokuapp.com/,1311,0,836
1644762893355,1328,HTTP Request,200,OK,Thread Group 1-2,text,true,,7299,126,8,8,https://prabals.herokuapp.com/,1328,0,831
1644762893553,1290,HTTP Request,200,OK,Thread Group 1-3,text,true,,7299,126,8,8,https://prabals.herokuapp.com/,1286,0,812
1644762893574,1288,HTTP Request,200,OK,Thread Group 1-7,text,true,,7299,126,8,8,https://prabals.herokuapp.com/,1288,0,814
1644762893769,1316,HTTP Request,200,OK,Thread Group 1-8,text,true,,7299,126,8,8,https://prabals.herokuapp.com/,1315,0,847
1644762894644,569,HTTP Request,200,OK,Thread Group 1-5,text,true,,7299,126,8,8,https://prabals.herokuapp.com/,569,0,0
1644762893755,1550,HTTP Request,200,OK,Thread Group 1-6,text,true,,7299,126,8,8,https://prabals.herokuapp.com/,1550,0,849
1644762894683,731,HTTP Request,200,OK,Thread Group 1-2,text,true,,7299,126,8,8,https://prabals.herokuapp.com/,725,0,0
1644762893918,1605,HTTP Request,200,OK,Thread Group 1-4,text,true,,7299,126,8,8,https://prabals.herokuapp.com/,1599,0,819
1644762893933,1680,HTTP Request,200,OK,Thread Group 1-1,text,true,,7299,126,8,8,https://prabals.herokuapp.com/,1679,0,801
1644762894844,858,HTTP Request,200,OK,Thread Group 1-3,text,true,,7299,126,8,8,https://prabals.herokuapp.com/,858,0,0
1644762894862,917,HTTP Request,200,OK,Thread Group 1-7,text,true,,7299,126,8,8,https://prabals.herokuapp.com/,916,0,0
1644762895086,798,HTTP Request,200,OK,Thread Group 1-8,text,true,,7299,126,8,8,https://prabals.herokuapp.com/,789,0,0
1644762895214,722,HTTP Request,200,OK,Thread Group 1-5,text,true,,7299,126,8,8,https://prabals.herokuapp.com/,710,0,0
1644762895305,722,HTTP Request,200,OK,Thread Group 1-6,text,true,,7299,126,8,8,https://prabals.herokuapp.com/,720,0,0
1644762895523,550,HTTP Request,200,OK,Thread Group 1-4,text,true,,7299,126,8,8,https://prabals.herokuapp.com/,550,0,0
1644762895613,682,HTTP Request,200,OK,Thread Group 1-1,text,true,,7299,126,8,8,https://prabals.herokuapp.com/,682,0,0
1644762895414,1328,HTTP Request,200,OK,Thread Group 1-2,text,true,,7299,126,8,8,https://prabals.herokuapp.com/,1325,0,890
1644762895703,1335,HTTP Request,200,OK,Thread Group 1-3,text,true,,7299,126,8,8,https://prabals.herokuapp.com/,1334,0,880
1644762895779,1298,HTTP Request,200,OK,Thread Group 1-7,text,true,,7299,126,8,8,https://prabals.herokuapp.com/,1298,0,864
1644762896743,449,HTTP Request,200,OK,Thread Group 1-2,text,true,,7299,126,8,8,https://prabals.herokuapp.com/,446,0,0
1644762895884,1348,HTTP Request,200,OK,Thread Group 1-8,text,true,,7299,126,8,8,https://prabals.herokuapp.com/,1343,0,844
1644762896027,1337,HTTP Request,200,OK,Thread Group 1-6,text,true,,7299,126,8,8,https://prabals.herokuapp.com/,1337,0,825
1644762895937,1495,HTTP Request,200,OK,Thread Group 1-5,text,true,,7299,126,8,8,https://prabals.herokuapp.com/,1495,0,936
1644762896073,1508,HTTP Request,200,OK,Thread Group 1-4,text,true,,7299,126,8,8,https://prabals.herokuapp.com/,1504,0,800
1644762897038,590,HTTP Request,200,OK,Thread Group 1-3,text,true,,7299,126,8,8,https://prabals.herokuapp.com/,590,0,0
1644762897077,700,HTTP Request,200,OK,Thread Group 1-7,text,true,,7299,126,8,8,https://prabals.herokuapp.com/,697,0,0
1644762896296,1540,HTTP Request,200,OK,Thread Group 1-1,text,true,,7299,126,8,8,https://prabals.herokuapp.com/,1540,0,836
1644762897193,739,HTTP Request,200,OK,Thread Group 1-2,text,true,,7299,126,8,8,https://prabals.herokuapp.com/,739,0,0
1644762897232,744,HTTP Request,200,OK,Thread Group 1-8,text,true,,7299,126,8,8,https://prabals.herokuapp.com/,742,0,0
1644762897365,831,HTTP Request,200,OK,Thread Group 1-6,text,true,,7299,126,8,8,https://prabals.herokuapp.com/,828,0,0
1644762897433,764,HTTP Request,200,OK,Thread Group 1-5,text,true,,7299,126,8,8,https://prabals.herokuapp.com/,763,0,0
1644762897582,644,HTTP Request,200,OK,Thread Group 1-4,text,true,,7299,126,8,8,https://prabals.herokuapp.com/,641,0,0
1644762897628,725,HTTP Request,200,OK,Thread Group 1-3,text,true,,7299,126,8,8,https://prabals.herokuapp.com/,721,0,0
1644762897836,598,HTTP Request,200,OK,Thread Group 1-1,text,true,,7299,126,8,8,https://prabals.herokuapp.com/,597,0,0
1644762897777,1328,HTTP Request,200,OK,Thread Group 1-7,text,true,,7299,126,8,8,https://prabals.herokuapp.com/,1326,0,863
1644762897976,1286,HTTP Request,200,OK,Thread Group 1-8,text,true,,7299,126,8,8,https://prabals.herokuapp.com/,1286,0,846
1644762897933,1398,HTTP Request,200,OK,Thread Group 1-2,text,true,,7299,126,8,8,https://prabals.herokuapp.com/,1360,0,889
1644762898196,1393,HTTP Request,200,OK,Thread Group 1-6,text,true,,7299,126,8,8,https://prabals.herokuapp.com/,1392,0,907
1644762898198,1432,HTTP Request,200,OK,Thread Group 1-5,text,true,,7299,126,8,8,https://prabals.herokuapp.com/,1432,0,920
1644762899106,690,HTTP Request,200,OK,Thread Group 1-7,text,true,,7299,126,8,8,https://prabals.herokuapp.com/,686,0,0
1644762898226,1597,HTTP Request,200,OK,Thread Group 1-4,text,true,,7299,126,8,8,https://prabals.herokuapp.com/,1597,0,892
1644762898354,1590,HTTP Request,200,OK,Thread Group 1-3,text,true,,7299,126,8,8,https://prabals.herokuapp.com/,1588,0,851
1644762899262,716,HTTP Request,200,OK,Thread Group 1-8,text,true,,7299,126,8,8,https://prabals.herokuapp.com/,715,0,0
1644762899331,762,HTTP Request,200,OK,Thread Group 1-2,text,true,,7299,126,8,8,https://prabals.herokuapp.com/,762,0,0
1644762898434,1734,HTTP Request,200,OK,Thread Group 1-1,text,true,,7299,126,8,8,https://prabals.herokuapp.com/,1732,0,900
1644762899589,663,HTTP Request,200,OK,Thread Group 1-6,text,true,,7299,126,8,8,https://prabals.herokuapp.com/,663,0,0
1644762899630,726,HTTP Request,200,OK,Thread Group 1-5,text,true,,7299,126,8,8,https://prabals.herokuapp.com/,726,0,0
1644762899823,681,HTTP Request,200,OK,Thread Group 1-4,text,true,,7299,126,8,8,https://prabals.herokuapp.com/,681,0,0
1644762899944,870,HTTP Request,200,OK,Thread Group 1-3,text,true,,7299,126,8,8,https://prabals.herokuapp.com/,869,0,0
1644762900168,803,HTTP Request,200,OK,Thread Group 1-1,text,true,,7299,126,8,8,https://prabals.herokuapp.com/,799,0,0
1644762899797,1436,HTTP Request,200,OK,Thread Group 1-7,text,true,,7299,126,8,8,https://prabals.herokuapp.com/,1436,0,1016
1644762899978,1269,HTTP Request,200,OK,Thread Group 1-8,text,true,,7299,126,8,8,https://prabals.herokuapp.com/,1269,0,851
1644762900253,1323,HTTP Request,200,OK,Thread Group 1-6,text,true,,7299,126,8,8,https://prabals.herokuapp.com/,1323,0,858
1644762900093,1504,HTTP Request,200,OK,Thread Group 1-2,text,true,,7299,126,8,8,https://prabals.herokuapp.com/,1504,0,1020
1644762901234,512,HTTP Request,200,OK,Thread Group 1-7,text,true,,7299,126,7,7,https://prabals.herokuapp.com/,512,0,0
1644762901247,520,HTTP Request,200,OK,Thread Group 1-8,text,true,,7299,126,7,7,https://prabals.herokuapp.com/,520,0,0
1644762900357,1545,HTTP Request,200,OK,Thread Group 1-5,text,true,,7299,126,7,7,https://prabals.herokuapp.com/,1545,0,1033
1644762900504,1413,HTTP Request,200,OK,Thread Group 1-4,text,true,,7299,126,7,7,https://prabals.herokuapp.com/,1411,0,871
1644762901576,511,HTTP Request,200,OK,Thread Group 1-6,text,true,,7299,126,7,7,https://prabals.herokuapp.com/,496,0,0
1644762900814,1310,HTTP Request,200,OK,Thread Group 1-3,text,true,,7299,126,7,7,https://prabals.herokuapp.com/,1310,0,869
1644762901767,453,HTTP Request,200,OK,Thread Group 1-8,text,true,,7299,126,7,7,https://prabals.herokuapp.com/,453,0,0
1644762901746,546,HTTP Request,200,OK,Thread Group 1-7,text,true,,7299,126,7,7,https://prabals.herokuapp.com/,546,0,0
1644762900971,1438,HTTP Request,200,OK,Thread Group 1-1,text,true,,7299,126,6,6,https://prabals.herokuapp.com/,1436,0,858
1644762901903,639,HTTP Request,200,OK,Thread Group 1-5,text,true,,7299,126,6,6,https://prabals.herokuapp.com/,639,0,0
1644762901917,699,HTTP Request,200,OK,Thread Group 1-4,text,true,,7299,126,6,6,https://prabals.herokuapp.com/,697,0,0
1644762902087,655,HTTP Request,200,OK,Thread Group 1-6,text,true,,7299,126,5,5,https://prabals.herokuapp.com/,652,0,0
1644762902125,696,HTTP Request,200,OK,Thread Group 1-3,text,true,,7299,126,5,5,https://prabals.herokuapp.com/,696,0,0
1644762902410,528,HTTP Request,200,OK,Thread Group 1-1,text,true,,7299,126,4,4,https://prabals.herokuapp.com/,528,0,0
1644762902220,1356,HTTP Request,200,OK,Thread Group 1-8,text,true,,7299,126,3,3,https://prabals.herokuapp.com/,1356,0,889
1644762902543,1388,HTTP Request,200,OK,Thread Group 1-5,text,true,,7299,126,2,2,https://prabals.herokuapp.com/,1387,0,932
1644762902742,1441,HTTP Request,200,OK,Thread Group 1-6,text,true,,7299,126,1,1,https://prabals.herokuapp.com/,1440,0,997
